data/20000101_000241.csv

Channel              :,CH1
Frequency            :,25.00MHz
Period               :,40.00ns
PK-PK                :,1.042V
Probe attenuation    :,1X
Voltage per ADC value:,0.500000mV
Time interval        :,0.00100uS

index,CH1_Voltage(mV)
1,-424.000000
2,-424.000000
3,-368.000000
4,-304.000000
5,-240.000000
6,-168.000000
7,-80.000000
8,0.000000
9,80.000000
10,160.000000
11,232.000000
12,304.000000
13,368.000000
14,424.000000
15,464.000000
16,496.000000
17,520.000000
18,528.000000
19,520.000000
20,504.000000
21,472.000000
22,424.000000
23,376.000000
24,312.000000
25,248.000000
26,168.000000
27,96.000000
28,8.000000
29,-72.000000
30,-152.000000
31,-224.000000
32,-296.000000
33,-360.000000
34,-408.000000
35,-448.000000
36,-480.000000
37,-504.000000
38,-512.000000
39,-504.000000
40,-488.000000
41,-464.000000
42,-424.000000
43,-368.000000
44,-304.000000
45,-240.000000
46,-168.000000
47,-80.000000
48,0.000000
49,80.000000
50,160.000000
51,232.000000
52,304.000000
53,368.000000
54,424.000000
55,464.000000
56,496.000000
57,520.000000
58,520.000000
59,520.000000
60,496.000000
61,472.000000
62,424.000000
63,376.000000
64,320.000000
65,248.000000
66,176.000000
67,96.000000
68,16.000000
69,-64.000000
70,-144.000000
71,-224.000000
72,-296.000000
73,-352.000000
74,-408.000000
75,-456.000000
76,-488.000000
77,-504.000000
78,-512.000000
79,-512.000000
80,-488.000000
81,-464.000000
82,-416.000000
83,-368.000000
84,-304.000000
85,-240.000000
86,-160.000000
87,-80.000000
88,0.000000
89,80.000000
90,160.000000
91,232.000000
92,304.000000
93,368.000000
94,416.000000
95,464.000000
96,496.000000
97,520.000000
98,520.000000
99,520.000000
100,504.000000
101,472.000000
102,432.000000
103,376.000000
104,320.000000
105,248.000000
106,176.000000
107,96.000000
108,16.000000
109,-64.000000
110,-144.000000
111,-224.000000
112,-296.000000
113,-352.000000
114,-408.000000
115,-448.000000
116,-488.000000
117,-504.000000
118,-512.000000
119,-504.000000
120,-488.000000
121,-464.000000
122,-424.000000
123,-368.000000
124,-312.000000
125,-240.000000
126,-160.000000
127,-80.000000
128,0.000000
129,80.000000
130,160.000000
131,232.000000
132,304.000000
133,368.000000
134,424.000000
135,464.000000
136,496.000000
137,520.000000
138,520.000000
139,520.000000
140,504.000000
141,472.000000
142,432.000000
143,376.000000
144,320.000000
145,248.000000
146,176.000000
147,96.000000
148,16.000000
149,-64.000000
150,-144.000000
151,-224.000000
152,-288.000000
153,-352.000000
154,-408.000000
155,-448.000000
156,-480.000000
157,-504.000000
158,-512.000000
159,-504.000000
160,-488.000000
161,-456.000000
162,-416.000000
163,-368.000000
164,-304.000000
165,-240.000000
166,-160.000000
167,-80.000000
168,0.000000
169,80.000000
170,160.000000
171,240.000000
172,304.000000
173,368.000000
174,424.000000
175,464.000000
176,496.000000
177,520.000000
178,528.000000
179,520.000000
180,496.000000
181,472.000000
182,424.000000
183,376.000000
184,312.000000
185,248.000000
186,176.000000
187,96.000000
188,8.000000
189,-72.000000
190,-152.000000
191,-224.000000
192,-296.000000
193,-360.000000
194,-408.000000
195,-456.000000
196,-488.000000
197,-504.000000
198,-512.000000
199,-512.000000
200,-488.000000
201,-456.000000
202,-416.000000
203,-368.000000
204,-304.000000
205,-232.000000
206,-160.000000
207,-80.000000
208,0.000000
209,80.000000
210,160.000000
211,240.000000
212,312.000000
213,368.000000
214,424.000000
215,464.000000
216,496.000000
217,520.000000
218,528.000000
219,520.000000
220,496.000000
221,472.000000
222,424.000000
223,376.000000
224,312.000000
225,248.000000
226,168.000000
227,88.000000
228,8.000000
229,-72.000000
230,-152.000000
231,-224.000000
232,-296.000000
233,-352.000000
234,-408.000000
235,-448.000000
236,-488.000000
237,-504.000000
238,-512.000000
239,-504.000000
240,-488.000000
241,-456.000000
242,-416.000000
243,-368.000000
244,-304.000000
245,-232.000000
246,-160.000000
247,-80.000000
248,0.000000
249,80.000000
250,160.000000
251,232.000000
252,304.000000
253,368.000000
254,424.000000
255,464.000000
256,496.000000
257,520.000000
258,528.000000
259,520.000000
260,504.000000
261,472.000000
262,432.000000
263,376.000000
264,312.000000
265,248.000000
266,168.000000
267,88.000000
268,8.000000
269,-72.000000
270,-152.000000
271,-224.000000
272,-296.000000
273,-360.000000
274,-408.000000
275,-448.000000
276,-488.000000
277,-504.000000
278,-512.000000
279,-504.000000
280,-488.000000
281,-456.000000
282,-416.000000
283,-368.000000
284,-304.000000
285,-232.000000
286,-160.000000
287,-80.000000
288,0.000000
289,80.000000
290,160.000000
291,240.000000
292,304.000000
293,368.000000
294,424.000000
295,464.000000
296,496.000000
297,520.000000
298,528.000000
299,520.000000
300,496.000000
301,472.000000
302,424.000000
303,376.000000
304,312.000000
305,248.000000
306,168.000000
307,88.000000
308,8.000000
309,-72.000000
310,-152.000000
311,-224.000000
312,-296.000000
313,-360.000000
314,-408.000000
315,-448.000000
316,-488.000000
317,-504.000000
318,-512.000000
319,-512.000000
320,-488.000000
321,-456.000000
322,-416.000000
323,-368.000000
324,-304.000000
325,-232.000000
326,-160.000000
327,-80.000000
328,0.000000
329,80.000000
330,160.000000
331,232.000000
332,304.000000
333,368.000000
334,424.000000
335,464.000000
336,496.000000
337,520.000000
338,528.000000
339,520.000000
340,504.000000
341,472.000000
342,424.000000
343,376.000000
344,312.000000
345,248.000000
346,168.000000
347,88.000000
348,8.000000
349,-72.000000
350,-152.000000
351,-224.000000
352,-296.000000
353,-360.000000
354,-408.000000
355,-456.000000
356,-488.000000
357,-504.000000
358,-512.000000
359,-512.000000
360,-488.000000
361,-456.000000
362,-416.000000
363,-368.000000
364,-304.000000
365,-232.000000
366,-160.000000
367,-80.000000
368,0.000000
369,88.000000
370,160.000000
371,240.000000
372,304.000000
373,368.000000
374,424.000000
375,464.000000
376,496.000000
377,520.000000
378,528.000000
379,520.000000
380,496.000000
381,472.000000
382,424.000000
383,376.000000
384,312.000000
385,240.000000
386,168.000000
387,88.000000
388,8.000000
389,-72.000000
390,-152.000000
391,-224.000000
392,-296.000000
393,-360.000000
394,-408.000000
395,-456.000000
396,-488.000000
397,-504.000000
398,-512.000000
399,-504.000000
400,-488.000000
401,-456.000000
402,-416.000000
403,-360.000000
404,-304.000000
405,-232.000000
406,-160.000000
407,-80.000000
408,0.000000
409,80.000000
410,168.000000
411,240.000000
412,304.000000
413,368.000000
414,424.000000
415,464.000000
416,496.000000
417,520.000000
418,528.000000
419,520.000000
420,504.000000
421,472.000000
422,424.000000
423,376.000000
424,312.000000
425,248.000000
426,168.000000
427,88.000000
428,8.000000
429,-72.000000
430,-152.000000
431,-224.000000
432,-296.000000
433,-360.000000
434,-408.000000
435,-456.000000
436,-488.000000
437,-504.000000
438,-512.000000
439,-512.000000
440,-488.000000
441,-464.000000
442,-416.000000
443,-368.000000
444,-304.000000
445,-232.000000
446,-160.000000
447,-80.000000
448,0.000000
449,88.000000
450,160.000000
451,232.000000
452,304.000000
453,368.000000
454,424.000000
455,464.000000
456,496.000000
457,520.000000
458,520.000000
459,520.000000
460,496.000000
461,472.000000
462,424.000000
463,376.000000
464,312.000000
465,248.000000
466,168.000000
467,88.000000
468,8.000000
469,-72.000000
470,-152.000000
471,-224.000000
472,-296.000000
473,-352.000000
474,-408.000000
475,-448.000000
476,-488.000000
477,-504.000000
478,-512.000000
479,-512.000000
480,-488.000000
481,-456.000000
482,-416.000000
483,-368.000000
484,-304.000000
485,-232.000000
486,-160.000000
487,-80.000000
488,0.000000
489,80.000000
490,160.000000
491,232.000000
492,304.000000
493,368.000000
494,424.000000
495,464.000000
496,496.000000
497,520.000000
498,528.000000
499,520.000000
500,504.000000
501,472.000000
502,432.000000
503,376.000000
504,312.000000
505,248.000000
506,176.000000
507,96.000000
508,8.000000
509,-72.000000
510,-152.000000
511,-224.000000
512,-296.000000
513,-360.000000
514,-408.000000
515,-456.000000
516,-488.000000
517,-504.000000
518,-512.000000
519,-504.000000
520,-488.000000
521,-456.000000
522,-416.000000
523,-360.000000
524,-304.000000
525,-232.000000
526,-160.000000
527,-80.000000
528,0.000000
529,80.000000
530,160.000000
531,232.000000
532,304.000000
533,368.000000
534,424.000000
535,464.000000
536,496.000000
537,520.000000
538,528.000000
539,520.000000
540,504.000000
541,472.000000
542,432.000000
543,376.000000
544,312.000000
545,248.000000
546,176.000000
547,96.000000
548,8.000000
549,-72.000000
550,-152.000000
551,-224.000000
552,-296.000000
553,-360.000000
554,-408.000000
555,-456.000000
556,-488.000000
557,-504.000000
558,-512.000000
559,-504.000000
560,-488.000000
561,-456.000000
562,-416.000000
563,-360.000000
564,-304.000000
565,-232.000000
566,-152.000000
567,-80.000000
568,0.000000
569,80.000000
570,160.000000
571,232.000000
572,304.000000
573,368.000000
574,424.000000
575,464.000000
576,496.000000
577,520.000000
578,528.000000
579,520.000000
580,496.000000
581,472.000000
582,424.000000
583,376.000000
584,312.000000
585,240.000000
586,168.000000
587,88.000000
588,8.000000
589,-72.000000
590,-152.000000
591,-232.000000
592,-304.000000
593,-360.000000
594,-416.000000
595,-456.000000
596,-488.000000
597,-504.000000
598,-512.000000
599,-504.000000
600,-488.000000
601,-456.000000
602,-416.000000
603,-360.000000
604,-296.000000
605,-232.000000
606,-152.000000
607,-72.000000
608,8.000000
609,88.000000
610,168.000000
611,240.000000
612,304.000000
613,376.000000
614,424.000000
615,464.000000
616,496.000000
617,520.000000
618,528.000000
619,520.000000
620,496.000000
621,464.000000
622,424.000000
623,376.000000
624,312.000000
625,240.000000
626,160.000000
627,80.000000
628,0.000000
629,-80.000000
630,-160.000000
631,-232.000000
632,-304.000000
633,-360.000000
634,-416.000000
635,-456.000000
636,-488.000000
637,-504.000000
638,-512.000000
639,-504.000000
640,-488.000000
641,-456.000000
642,-408.000000
643,-360.000000
644,-296.000000
645,-224.000000
646,-152.000000
647,-72.000000
648,8.000000
649,88.000000
650,168.000000
651,240.000000
652,312.000000
653,376.000000
654,424.000000
655,472.000000
656,504.000000
657,520.000000
658,528.000000
659,520.000000
660,496.000000
661,464.000000
662,424.000000
663,368.000000
664,304.000000
665,240.000000
666,160.000000
667,80.000000
668,0.000000
669,-72.000000
670,-152.000000
671,-232.000000
672,-296.000000
673,-360.000000
674,-408.000000
675,-456.000000
676,-488.000000
677,-504.000000
678,-512.000000
679,-504.000000
680,-488.000000
681,-456.000000
682,-416.000000
683,-360.000000
684,-304.000000
685,-232.000000
686,-152.000000
687,-72.000000
688,8.000000
689,88.000000
690,168.000000
691,240.000000
692,312.000000
693,376.000000
694,424.000000
695,472.000000
696,504.000000
697,520.000000
698,528.000000
699,520.000000
700,496.000000
701,464.000000
702,424.000000
703,376.000000
704,312.000000
705,240.000000
706,168.000000
707,88.000000
708,8.000000
709,-72.000000
710,-152.000000
711,-232.000000
712,-304.000000
713,-360.000000
714,-408.000000
715,-448.000000
716,-488.000000
717,-504.000000
718,-512.000000
719,-504.000000
720,-488.000000
721,-456.000000
722,-416.000000
723,-360.000000
724,-304.000000
725,-232.000000
726,-160.000000
727,-80.000000
728,8.000000
729,88.000000
730,168.000000
731,240.000000
732,304.000000
733,368.000000
734,424.000000
735,464.000000
736,496.000000
737,520.000000
738,528.000000
739,520.000000
740,504.000000
741,472.000000
742,432.000000
743,376.000000
744,312.000000
745,240.000000
746,168.000000
747,88.000000
748,8.000000
749,-72.000000
750,-152.000000
751,-224.000000
752,-296.000000
753,-360.000000
754,-416.000000
755,-456.000000
756,-488.000000
757,-504.000000
758,-512.000000
759,-504.000000
760,-488.000000
761,-456.000000
762,-416.000000
763,-360.000000
764,-304.000000
765,-232.000000
766,-152.000000
767,-72.000000
768,8.000000
769,88.000000
770,168.000000
771,240.000000
772,312.000000
773,368.000000
774,424.000000
775,472.000000
776,504.000000
777,520.000000
778,528.000000
779,520.000000
780,496.000000
781,472.000000
782,424.000000
783,376.000000
784,312.000000
785,248.000000
786,168.000000
787,88.000000
788,8.000000
789,-72.000000
790,-152.000000
791,-232.000000
792,-296.000000
793,-360.000000
794,-416.000000
795,-456.000000
796,-488.000000
797,-504.000000
798,-512.000000
799,-504.000000
800,-488.000000
801,-456.000000
802,-416.000000
803,-360.000000
804,-304.000000
805,-232.000000
806,-160.000000
807,-80.000000
808,0.000000
809,88.000000
810,168.000000
811,240.000000
812,304.000000
813,368.000000
814,424.000000
815,472.000000
816,496.000000
817,520.000000
818,528.000000
819,520.000000
820,496.000000
821,472.000000
822,424.000000
823,376.000000
824,312.000000
825,240.000000
826,168.000000
827,88.000000
828,8.000000
829,-72.000000
830,-152.000000
831,-224.000000
832,-296.000000
833,-360.000000
834,-408.000000
835,-456.000000
836,-488.000000
837,-504.000000
838,-512.000000
839,-504.000000
840,-488.000000
841,-456.000000
842,-416.000000
843,-360.000000
844,-304.000000
845,-232.000000
846,-160.000000
847,-72.000000
848,8.000000
849,88.000000
850,168.000000
851,240.000000
852,312.000000
853,376.000000
854,424.000000
855,464.000000
856,496.000000
857,520.000000
858,528.000000
859,520.000000
860,496.000000
861,472.000000
862,424.000000
863,376.000000
864,312.000000
865,240.000000
866,168.000000
867,88.000000
868,8.000000
869,-72.000000
870,-152.000000
871,-224.000000
872,-296.000000
873,-360.000000
874,-408.000000
875,-456.000000
876,-488.000000
877,-504.000000
878,-512.000000
879,-504.000000
880,-488.000000
881,-456.000000
882,-416.000000
883,-360.000000
884,-304.000000
885,-232.000000
886,-160.000000
887,-80.000000
888,0.000000
889,88.000000
890,168.000000
891,240.000000
892,304.000000
893,376.000000
894,424.000000
895,464.000000
896,496.000000
897,520.000000
898,528.000000
899,512.000000
900,504.000000
901,472.000000
902,424.000000
903,376.000000
904,312.000000
905,240.000000
906,168.000000
907,88.000000
908,8.000000
909,-72.000000
910,-152.000000
911,-224.000000
912,-296.000000
913,-360.000000
914,-408.000000
915,-456.000000
916,-488.000000
917,-504.000000
918,-512.000000
919,-504.000000
920,-488.000000
921,-456.000000
922,-416.000000
923,-360.000000
924,-304.000000
925,-232.000000
926,-160.000000
927,-80.000000
928,0.000000
929,80.000000
930,168.000000
931,240.000000
932,304.000000
933,368.000000
934,424.000000
935,464.000000
936,496.000000
937,520.000000
938,528.000000
939,512.000000
940,496.000000
941,472.000000
942,424.000000
943,376.000000
944,312.000000
945,248.000000
946,168.000000
947,88.000000
948,8.000000
949,-72.000000
950,-152.000000
951,-224.000000
952,-296.000000
953,-360.000000
954,-408.000000
955,-448.000000
956,-488.000000
957,-504.000000
958,-512.000000
959,-504.000000
960,-488.000000
961,-456.000000
962,-416.000000
963,-360.000000
964,-304.000000
965,-232.000000
966,-160.000000
967,-80.000000
968,0.000000
969,80.000000
970,160.000000
971,240.000000
972,304.000000
973,368.000000
974,424.000000
975,472.000000
976,496.000000
977,520.000000
978,528.000000
979,520.000000
980,504.000000
981,472.000000
982,432.000000
983,376.000000
984,312.000000
985,248.000000
986,168.000000
987,88.000000
988,8.000000
989,-72.000000
990,-152.000000
991,-232.000000
992,-296.000000
993,-360.000000
994,-408.000000
995,-448.000000
996,-488.000000
997,-504.000000
998,-512.000000
999,-504.000000
1000,-488.000000
1001,-456.000000
1002,-416.000000
1003,-360.000000
1004,-304.000000
1005,-232.000000
1006,-160.000000
1007,-80.000000
1008,0.000000
1009,88.000000
1010,168.000000
1011,240.000000
1012,304.000000
1013,368.000000
1014,424.000000
1015,472.000000
1016,496.000000
1017,520.000000
1018,528.000000
1019,520.000000
1020,496.000000
1021,464.000000
1022,424.000000
1023,376.000000
1024,312.000000
1025,240.000000
1026,168.000000
1027,88.000000
1028,8.000000
1029,-72.000000
1030,-152.000000
1031,-232.000000
1032,-296.000000
1033,-360.000000
1034,-416.000000
1035,-456.000000
1036,-488.000000
1037,-504.000000
1038,-512.000000
1039,-512.000000
1040,-488.000000
1041,-456.000000
1042,-416.000000
1043,-360.000000
1044,-296.000000
1045,-224.000000
1046,-152.000000
1047,-72.000000
1048,8.000000
1049,88.000000
1050,168.000000
1051,240.000000
1052,312.000000
1053,376.000000
1054,424.000000
1055,472.000000
1056,504.000000
1057,520.000000
1058,520.000000
1059,520.000000
1060,496.000000
1061,464.000000
1062,424.000000
1063,368.000000
1064,304.000000
1065,240.000000
1066,160.000000
1067,80.000000
1068,0.000000
1069,-80.000000
1070,-160.000000
1071,-232.000000
1072,-304.000000
1073,-360.000000
1074,-416.000000
1075,-456.000000
1076,-488.000000
1077,-504.000000
1078,-512.000000
1079,-504.000000
1080,-488.000000
1081,-456.000000
1082,-416.000000
1083,-360.000000
1084,-296.000000
1085,-224.000000
1086,-152.000000
1087,-72.000000
1088,8.000000
1089,88.000000
1090,168.000000
1091,240.000000
1092,312.000000
1093,376.000000
1094,424.000000
1095,472.000000
1096,496.000000
1097,520.000000
1098,520.000000
1099,520.000000
1100,496.000000
1101,464.000000
1102,424.000000
1103,368.000000
1104,304.000000
1105,240.000000
1106,160.000000
1107,88.000000
1108,8.000000
1109,-72.000000
1110,-152.000000
1111,-232.000000
1112,-304.000000
1113,-360.000000
1114,-416.000000
1115,-456.000000
1116,-488.000000
1117,-504.000000
1118,-512.000000
1119,-504.000000
1120,-488.000000
1121,-456.000000
1122,-416.000000
1123,-360.000000
1124,-296.000000
1125,-224.000000
1126,-152.000000
1127,-72.000000
1128,8.000000
1129,88.000000
1130,168.000000
1131,240.000000
1132,312.000000
1133,376.000000
1134,424.000000
1135,472.000000
1136,504.000000
1137,520.000000
1138,528.000000
1139,520.000000
1140,496.000000
1141,472.000000
1142,424.000000
1143,368.000000
1144,304.000000
1145,240.000000
1146,160.000000
1147,80.000000
1148,0.000000
1149,-80.000000
1150,-160.000000
1151,-232.000000
1152,-296.000000
1153,-360.000000
1154,-416.000000
1155,-456.000000
1156,-488.000000
1157,-504.000000
1158,-512.000000
1159,-504.000000
1160,-488.000000
1161,-456.000000
1162,-408.000000
1163,-352.000000
1164,-296.000000
1165,-224.000000
1166,-144.000000
1167,-64.000000
1168,16.000000
1169,96.000000
1170,176.000000
1171,248.000000
1172,320.000000
1173,376.000000
1174,432.000000
1175,472.000000
1176,504.000000
1177,520.000000
1178,528.000000
1179,520.000000
1180,496.000000
1181,464.000000
1182,424.000000
1183,368.000000
1184,304.000000
1185,232.000000
1186,160.000000
1187,80.000000
1188,0.000000
1189,-80.000000
1190,-160.000000
1191,-232.000000
1192,-304.000000
1193,-360.000000
1194,-416.000000
1195,-456.000000
1196,-488.000000
1197,-504.000000
1198,-512.000000
1199,-504.000000
1200,-488.000000
1201,-456.000000
1202,-408.000000
1203,-352.000000
1204,-296.000000
1205,-224.000000
1206,-144.000000
1207,-64.000000
1208,16.000000
1209,96.000000
1210,176.000000
1211,248.000000
1212,312.000000
1213,376.000000
1214,432.000000
1215,472.000000
1216,504.000000
1217,520.000000
1218,528.000000
1219,520.000000
1220,496.000000
1221,464.000000
1222,424.000000
1223,368.000000
1224,304.000000
1225,232.000000
1226,160.000000
1227,80.000000
1228,0.000000
1229,-80.000000
1230,-160.000000
1231,-232.000000
1232,-304.000000
1233,-368.000000
1234,-416.000000
1235,-456.000000
1236,-488.000000
1237,-504.000000
1238,-512.000000
1239,-504.000000
1240,-488.000000
1241,-456.000000
1242,-408.000000
1243,-352.000000
1244,-296.000000
1245,-224.000000
1246,-144.000000
1247,-64.000000
1248,16.000000
1249,96.000000
1250,176.000000
1251,248.000000
1252,312.000000
1253,376.000000
1254,432.000000
1255,472.000000
1256,496.000000
1257,520.000000
1258,520.000000
1259,512.000000
1260,496.000000
1261,464.000000
1262,416.000000
1263,368.000000
1264,304.000000
1265,240.000000
1266,160.000000
1267,80.000000
1268,0.000000
1269,-80.000000
1270,-160.000000
1271,-232.000000
1272,-304.000000
1273,-360.000000
1274,-416.000000
1275,-456.000000
1276,-488.000000
1277,-504.000000
1278,-512.000000
1279,-504.000000
1280,-488.000000
1281,-456.000000
